// Jest Snapshot v1, https://goo.gl/fbAQLP

exports[`Routes component: should render 1`] = `
Array [
  <div
    className="MuiBox-root MuiBox-root-3 makeStyles-root-1"
  >
    <header
      className="MuiPaper-root MuiAppBar-root MuiAppBar-positionStatic MuiAppBar-colorPrimary MuiPaper-elevation4"
    >
      <div
        className="MuiToolbar-root MuiToolbar-regular MuiToolbar-gutters"
      >
        <h6
          className="MuiTypography-root makeStyles-title-2 MuiTypography-h6"
        >
          <a
            href="/"
            onClick={[Function]}
          >
            Radio unlock
          </a>
        </h6>
      </div>
    </header>
  </div>,
  <div
    className="MuiContainer-root MuiContainer-maxWidthLg"
  >
    <div
      className="MuiGrid-root makeStyles-root-4 MuiGrid-container MuiGrid-spacing-xs-4 MuiGrid-justify-xs-center"
    >
      <div
        className="MuiGrid-root MuiGrid-item MuiGrid-grid-xs-12 MuiGrid-grid-sm-6 MuiGrid-grid-md-4"
      >
        <a
          href="/opel"
          onClick={[Function]}
        >
          <div
            className="MuiPaper-root MuiCard-root makeStyles-root-6 MuiPaper-elevation1 MuiPaper-rounded"
          >
            <button
              className="MuiButtonBase-root MuiCardActionArea-root"
              disabled={false}
              onBlur={[Function]}
              onDragLeave={[Function]}
              onFocus={[Function]}
              onKeyDown={[Function]}
              onKeyUp={[Function]}
              onMouseDown={[Function]}
              onMouseLeave={[Function]}
              onMouseUp={[Function]}
              onTouchEnd={[Function]}
              onTouchMove={[Function]}
              onTouchStart={[Function]}
              tabIndex={0}
              type="button"
            >
              <div
                className="MuiCardMedia-root makeStyles-media-7"
                style={
                  Object {
                    "backgroundImage": "url(\\"opelvauxhall.png\\")",
                  }
                }
                title="Opel/Vauxhall"
              />
              <div
                className="MuiCardContent-root"
              >
                <h2
                  className="MuiTypography-root MuiTypography-h5 MuiTypography-gutterBottom"
                >
                  Opel/Vauxhall
                </h2>
                <p
                  className="MuiTypography-root MuiTypography-body2 MuiTypography-colorTextSecondary"
                >
                  Decode radio or display
                </p>
              </div>
              <span
                className="MuiCardActionArea-focusHighlight"
              />
            </button>
          </div>
        </a>
      </div>
      <div
        className="MuiGrid-root MuiGrid-item MuiGrid-grid-xs-12 MuiGrid-grid-sm-6 MuiGrid-grid-md-4"
      >
        <a
          href="/psa"
          onClick={[Function]}
        >
          <div
            className="MuiPaper-root MuiCard-root makeStyles-root-6 MuiPaper-elevation1 MuiPaper-rounded"
          >
            <button
              className="MuiButtonBase-root MuiCardActionArea-root"
              disabled={false}
              onBlur={[Function]}
              onDragLeave={[Function]}
              onFocus={[Function]}
              onKeyDown={[Function]}
              onKeyUp={[Function]}
              onMouseDown={[Function]}
              onMouseLeave={[Function]}
              onMouseUp={[Function]}
              onTouchEnd={[Function]}
              onTouchMove={[Function]}
              onTouchStart={[Function]}
              tabIndex={0}
              type="button"
            >
              <div
                className="MuiCardMedia-root makeStyles-media-7"
                style={
                  Object {
                    "backgroundImage": "url(\\"peugeotcitroen.png\\")",
                  }
                }
                title="Peugeot/Citroen"
              />
              <div
                className="MuiCardContent-root"
              >
                <h2
                  className="MuiTypography-root MuiTypography-h5 MuiTypography-gutterBottom"
                >
                  Peugeot/Citroen
                </h2>
                <p
                  className="MuiTypography-root MuiTypography-body2 MuiTypography-colorTextSecondary"
                >
                  Change radio vin...
                </p>
              </div>
              <span
                className="MuiCardActionArea-focusHighlight"
              />
            </button>
          </div>
        </a>
      </div>
    </div>
  </div>,
]
`;
